<mxfile host="app.diagrams.net" modified="2020-10-16T08:02:45.930Z" agent="5.0 (Macintosh; Intel Mac OS X 10_15_5) AppleWebKit/537.36 (KHTML, like Gecko) Chrome/86.0.4240.75 Safari/537.36" etag="04N7qf7Esc7XtmmdEwRB" version="13.8.0" type="gitlab">
  <diagram name="Page-1" id="c4acf3e9-155e-7222-9cf6-157b1a14988f">
    <mxGraphModel dx="957" dy="590" grid="1" gridSize="10" guides="1" tooltips="1" connect="1" arrows="1" fold="1" page="1" pageScale="1" pageWidth="850" pageHeight="1100" background="#ffffff" math="0" shadow="0">
      <root>
        <mxCell id="0" />
        <mxCell id="1" parent="0" />
        <mxCell id="HYXRxh3l0StNc2fqGYYB-7" style="edgeStyle=orthogonalEdgeStyle;rounded=0;orthogonalLoop=1;jettySize=auto;html=1;entryX=0.5;entryY=0;entryDx=0;entryDy=0;endArrow=classicThin;endFill=0;" edge="1" parent="1" source="P1sJRlDjSm9BxM9G4OCx-1" target="HYXRxh3l0StNc2fqGYYB-2">
          <mxGeometry relative="1" as="geometry" />
        </mxCell>
        <mxCell id="HYXRxh3l0StNc2fqGYYB-8" style="edgeStyle=orthogonalEdgeStyle;rounded=0;orthogonalLoop=1;jettySize=auto;html=1;entryX=0.5;entryY=0;entryDx=0;entryDy=0;endArrow=classicThin;endFill=0;" edge="1" parent="1" source="P1sJRlDjSm9BxM9G4OCx-5" target="P1sJRlDjSm9BxM9G4OCx-1">
          <mxGeometry relative="1" as="geometry" />
        </mxCell>
        <mxCell id="P1sJRlDjSm9BxM9G4OCx-5" value="Character" style="swimlane;fontStyle=1;align=center;verticalAlign=top;childLayout=stackLayout;horizontal=1;startSize=26;horizontalStack=0;resizeParent=1;resizeParentMax=0;resizeLast=0;collapsible=1;marginBottom=0;" parent="1" vertex="1">
          <mxGeometry x="340" y="140" width="160" height="290" as="geometry" />
        </mxCell>
        <mxCell id="P1sJRlDjSm9BxM9G4OCx-6" value="Name&#xa;MaxXP&#xa;MaxMP&#xa;MaxStamina&#xa;CurrentHP&#xa;CurrentMP&#xa;CurrentStamina" style="text;strokeColor=none;fillColor=none;align=left;verticalAlign=top;spacingLeft=4;spacingRight=4;overflow=hidden;rotatable=0;points=[[0,0.5],[1,0.5]];portConstraint=eastwest;" parent="P1sJRlDjSm9BxM9G4OCx-5" vertex="1">
          <mxGeometry y="26" width="160" height="104" as="geometry" />
        </mxCell>
        <mxCell id="P1sJRlDjSm9BxM9G4OCx-7" value="" style="line;strokeWidth=1;fillColor=none;align=left;verticalAlign=middle;spacingTop=-1;spacingLeft=3;spacingRight=3;rotatable=0;labelPosition=right;points=[];portConstraint=eastwest;" parent="P1sJRlDjSm9BxM9G4OCx-5" vertex="1">
          <mxGeometry y="130" width="160" height="8" as="geometry" />
        </mxCell>
        <mxCell id="P1sJRlDjSm9BxM9G4OCx-8" value="useMagic&#xa;getCurrentHP&#xa;getCurrentMP&#xa;getCurrentStamina&#xa;restoreMagic&#xa;getName&#xa;useStamina&#xa;restoreStamina&#xa;takeDamage&#xa;restoreHP" style="text;strokeColor=none;fillColor=none;align=left;verticalAlign=top;spacingLeft=4;spacingRight=4;overflow=hidden;rotatable=0;points=[[0,0.5],[1,0.5]];portConstraint=eastwest;" parent="P1sJRlDjSm9BxM9G4OCx-5" vertex="1">
          <mxGeometry y="138" width="160" height="152" as="geometry" />
        </mxCell>
        <mxCell id="P1sJRlDjSm9BxM9G4OCx-1" value="Monster&#xa;" style="swimlane;fontStyle=1;align=center;verticalAlign=top;childLayout=stackLayout;horizontal=1;startSize=26;horizontalStack=0;resizeParent=1;resizeParentMax=0;resizeLast=0;collapsible=1;marginBottom=0;" parent="1" vertex="1">
          <mxGeometry x="340" y="490" width="160" height="104" as="geometry" />
        </mxCell>
        <mxCell id="P1sJRlDjSm9BxM9G4OCx-2" value="resistance&#xa;weakness" style="text;strokeColor=none;fillColor=none;align=left;verticalAlign=top;spacingLeft=4;spacingRight=4;overflow=hidden;rotatable=0;points=[[0,0.5],[1,0.5]];portConstraint=eastwest;" parent="P1sJRlDjSm9BxM9G4OCx-1" vertex="1">
          <mxGeometry y="26" width="160" height="44" as="geometry" />
        </mxCell>
        <mxCell id="P1sJRlDjSm9BxM9G4OCx-3" value="" style="line;strokeWidth=1;fillColor=none;align=left;verticalAlign=middle;spacingTop=-1;spacingLeft=3;spacingRight=3;rotatable=0;labelPosition=right;points=[];portConstraint=eastwest;" parent="P1sJRlDjSm9BxM9G4OCx-1" vertex="1">
          <mxGeometry y="70" width="160" height="8" as="geometry" />
        </mxCell>
        <mxCell id="P1sJRlDjSm9BxM9G4OCx-4" value="dealDamage" style="text;strokeColor=none;fillColor=none;align=left;verticalAlign=top;spacingLeft=4;spacingRight=4;overflow=hidden;rotatable=0;points=[[0,0.5],[1,0.5]];portConstraint=eastwest;" parent="P1sJRlDjSm9BxM9G4OCx-1" vertex="1">
          <mxGeometry y="78" width="160" height="26" as="geometry" />
        </mxCell>
        <mxCell id="HYXRxh3l0StNc2fqGYYB-2" value="Dragon" style="swimlane;fontStyle=1;align=center;verticalAlign=top;childLayout=stackLayout;horizontal=1;startSize=26;horizontalStack=0;resizeParent=1;resizeParentMax=0;resizeLast=0;collapsible=1;marginBottom=0;" vertex="1" parent="1">
          <mxGeometry x="340" y="660" width="330" height="122" as="geometry" />
        </mxCell>
        <mxCell id="HYXRxh3l0StNc2fqGYYB-5" value="(Override)dealDamage&#xa;Stun - make player loose one or two turns (randomised).&#xa;mulitAttack (Attack up to 3 friendlyCharacters with fireBall)&#xa;dropItem&#xa;giveXP" style="text;strokeColor=none;fillColor=none;align=left;verticalAlign=top;spacingLeft=4;spacingRight=4;overflow=hidden;rotatable=0;points=[[0,0.5],[1,0.5]];portConstraint=eastwest;" vertex="1" parent="HYXRxh3l0StNc2fqGYYB-2">
          <mxGeometry y="26" width="330" height="88" as="geometry" />
        </mxCell>
        <mxCell id="HYXRxh3l0StNc2fqGYYB-4" value="" style="line;strokeWidth=1;fillColor=none;align=left;verticalAlign=middle;spacingTop=-1;spacingLeft=3;spacingRight=3;rotatable=0;labelPosition=right;points=[];portConstraint=eastwest;" vertex="1" parent="HYXRxh3l0StNc2fqGYYB-2">
          <mxGeometry y="114" width="330" height="8" as="geometry" />
        </mxCell>
      </root>
    </mxGraphModel>
  </diagram>
</mxfile>
